Assignment 1: Census Data Quality for Policy Decisions – Jinyang Xu - MUSA 5080 Portfolio
…
county_data

# A tibble: 87 × 6
   GEOID NAME  median_incomeE median_incomeM total_populationE total_populationM
   <chr> <chr>          <dbl>          <dbl>             <dbl>             <dbl>
 1 27001 Aitk…          56406           2136             15859                NA
 2 27003 Anok…          95782           1203            363985                NA
 3 27005 Beck…          68683           2197             35202                NA
 4 27007 Belt…          62173           3292             46274                NA
 5 27009 Bent…          70346           3948             41300                NA
 6 27011 Big …          63024           5327              5161                NA
 7 27013 Blue…          70906           3327             69022                NA
 8 27015 Brow…          67038           3230             25880                NA
 9 27017 Carl…          74660           4154             36362                NA
10 27019 Carv…         116308           3386            107216                NA
# ℹ 77 more rows
…
county_data_clean <- county_data_clean %>%
  mutate(reliability = case_when(
    MOE < 5 ~ "High Confidence",
    MOE >= 5 & MOE <= 10 ~ "Moderate Confidence",
    MOE > 10 ~ "Low Confidence"
  ))

county_data_clean <- county_data_clean %>%
  mutate(unreliable_flag = MOE > 10)
county_data_clean

# A tibble: 87 × 9
   GEOID NAME  median_incomeE median_incomeM total_populationE total_populationM
   <chr> <chr>          <dbl>          <dbl>             <dbl>             <dbl>
 1 27001 Aitk…          56406           2136             15859                NA
 2 27003 Anoka          95782           1203            363985                NA
 3 27005 Beck…          68683           2197             35202                NA
 4 27007 Belt…          62173           3292             46274                NA
 5 27009 Bent…          70346           3948             41300                NA
 6 27011 Big …          63024           5327              5161                NA
 7 27013 Blue…          70906           3327             69022                NA
 8 27015 Brown          67038           3230             25880                NA
 9 27017 Carl…          74660           4154             36362                NA
10 27019 Carv…         116308           3386            107216                NA
# ℹ 77 more rows
# ℹ 3 more variables: MOE <dbl>, reliability <chr>, unreliable_flag <lgl>
…
tract_data <- get_acs(
  geography = "tract",
  state = "27",
  county = selected_county_codes,
  variables = race,
  year = 2022,
  survey = "acs5",
  output = "wide"
)

tract_data

# A tibble: 103 × 10
   GEOID       NAME   whiteE whiteM blackE blackM hispanicE hispanicM total_popE
   <chr>       <chr>   <dbl>  <dbl>  <dbl>  <dbl>     <dbl>     <dbl>      <dbl>
 1 27003050107 Censu…   2776    244      8     13        27        38       2931
 2 27003050108 Censu…   5072    342     97     94       240       227       5737
 3 27003050109 Censu…   5296    592     19     26       273       229       5673
 4 27003050110 Censu…   2553    415     11     16        97        96       2773
 5 27003050111 Censu…   3286    413     55     82        35        36       3455
 6 27003050114 Censu…   3076    355      0      9        20        31       3173
 7 27003050115 Censu…   5140    550      0     13        52        59       5783
 8 27003050116 Censu…   4089    254     34     35        77        68       4518
 9 27003050208 Censu…   2698    512    428    337        32        29       3304
10 27003050210 Censu…   3801    170      0      9        20        28       4180
# ℹ 93 more rows
# ℹ 1 more variable: total_popM <dbl>

# Calculate percentage of each group using mutate()
# Create percentages for white, Black, and Hispanic populations
tract_data2 <- tract_data %>%
  mutate(pct_white = (whiteE / total_popE) * 100) %>%
  mutate(pct_black = (blackE / total_popE) * 100) %>%
  mutate(pct_hispanic = (hispanicE / total_popE) * 100)

tract_data2 

# A tibble: 103 × 13
   GEOID       NAME   whiteE whiteM blackE blackM hispanicE hispanicM total_popE
   <chr>       <chr>   <dbl>  <dbl>  <dbl>  <dbl>     <dbl>     <dbl>      <dbl>
 1 27003050107 Censu…   2776    244      8     13        27        38       2931
 2 27003050108 Censu…   5072    342     97     94       240       227       5737
 3 27003050109 Censu…   5296    592     19     26       273       229       5673
 4 27003050110 Censu…   2553    415     11     16        97        96       2773
 5 27003050111 Censu…   3286    413     55     82        35        36       3455
 6 27003050114 Censu…   3076    355      0      9        20        31       3173
 7 27003050115 Censu…   5140    550      0     13        52        59       5783
 8 27003050116 Censu…   4089    254     34     35        77        68       4518
 9 27003050208 Censu…   2698    512    428    337        32        29       3304
10 27003050210 Censu…   3801    170      0      9        20        28       4180
# ℹ 93 more rows
# ℹ 4 more variables: total_popM <dbl>, pct_white <dbl>, pct_black <dbl>,
#   pct_hispanic <dbl>
…
tract_data3 <- tract_data2 %>%
  mutate(
    tract_id = str_extract(NAME, "Census Tract \\d+"),     
    tract_id = str_remove(tract_id, "Census Tract "),
    
    county_name = str_extract(NAME, "(?<=; ).* County"),     
    county_name = str_remove(county_name, " County$"),
    
    state_name  = str_extract(NAME, "(?<=; )[^;]+$")         
  ) %>%
  relocate(tract_id, county_name, state_name, .after = NAME)

tract_data3

# A tibble: 103 × 16
   GEOID       NAME  tract_id county_name state_name whiteE whiteM blackE blackM
   <chr>       <chr> <chr>    <chr>       <chr>       <dbl>  <dbl>  <dbl>  <dbl>
 1 27003050107 Cens… 501      Anoka       Minnesota    2776    244      8     13
 2 27003050108 Cens… 501      Anoka       Minnesota    5072    342     97     94
 3 27003050109 Cens… 501      Anoka       Minnesota    5296    592     19     26
 4 27003050110 Cens… 501      Anoka       Minnesota    2553    415     11     16
 5 27003050111 Cens… 501      Anoka       Minnesota    3286    413     55     82
 6 27003050114 Cens… 501      Anoka       Minnesota    3076    355      0      9
 7 27003050115 Cens… 501      Anoka       Minnesota    5140    550      0     13
 8 27003050116 Cens… 501      Anoka       Minnesota    4089    254     34     35
 9 27003050208 Cens… 502      Anoka       Minnesota    2698    512    428    337
10 27003050210 Cens… 502      Anoka       Minnesota    3801    170      0      9
# ℹ 93 more rows
# ℹ 7 more variables: hispanicE <dbl>, hispanicM <dbl>, total_popE <dbl>,
#   total_popM <dbl>, pct_white <dbl>, pct_black <dbl>, pct_hispanic <dbl>
…
Your Task: Examine margins of error for demographic variables to see if some communities have less reliable data.

Requirements: - Calculate MOE percentages for each demographic variable - Flag tracts where any demographic variable has MOE > 15% - Create summary statistics

# Calculate MOE percentages for white, Black, and Hispanic variables
tract_moe <- tract_data3 %>%
  mutate(
    white_moe_pct    = (whiteM / whiteE) * 100,
    black_moe_pct    = (blackM / blackE) * 100,
    hispanic_moe_pct = (hispanicM / hispanicE) * 100
  )
tract_moe

# A tibble: 103 × 19
   GEOID       NAME  tract_id county_name state_name whiteE whiteM blackE blackM
   <chr>       <chr> <chr>    <chr>       <chr>       <dbl>  <dbl>  <dbl>  <dbl>
 1 27003050107 Cens… 501      Anoka       Minnesota    2776    244      8     13
 2 27003050108 Cens… 501      Anoka       Minnesota    5072    342     97     94
 3 27003050109 Cens… 501      Anoka       Minnesota    5296    592     19     26
 4 27003050110 Cens… 501      Anoka       Minnesota    2553    415     11     16
 5 27003050111 Cens… 501      Anoka       Minnesota    3286    413     55     82
 6 27003050114 Cens… 501      Anoka       Minnesota    3076    355      0      9
 7 27003050115 Cens… 501      Anoka       Minnesota    5140    550      0     13
 8 27003050116 Cens… 501      Anoka       Minnesota    4089    254     34     35
 9 27003050208 Cens… 502      Anoka       Minnesota    2698    512    428    337
10 27003050210 Cens… 502      Anoka       Minnesota    3801    170      0      9
# ℹ 93 more rows
# ℹ 10 more variables: hispanicE <dbl>, hispanicM <dbl>, total_popE <dbl>,
#   total_popM <dbl>, pct_white <dbl>, pct_black <dbl>, pct_hispanic <dbl>,
#   white_moe_pct <dbl>, black_moe_pct <dbl>, hispanic_moe_pct <dbl>
…
